Start of saveset, written by TITO v16.  Tape #1, 1988-10-13 12:05
System: D35-P035/E.  Tape: 6250 bpi, 9 tracks.
   (SSPRINT)      DDTF24.000    1975-01-05 00:00   [11447,133410]
   (SSPRINT)      LIB40F.261    1975-01-05 00:00   [11447,133410]
   (SSPRINT)      LIB40F.264    1975-01-05 00:00   [11447,133410]
   (SSPRINT)      ACCESS.LIS    1984-03-10 20:59   [11447,133410]
   (SSPRINT)      EXIT  .MAC    1984-03-10 21:21   [11447,133410]
   (SSPRINT)      IOADR .MAC    1984-03-10 21:21   [11447,133410]
   (SSPRINT)      MISC  .MAC    1984-03-10 21:21   [11447,133410]
   (SSPRINT)      ACCESS.MSG    1984-03-14 04:21   [11447,133410]
   (SSPRINT)      LIB401.V55    1984-03-14 05:24   [11447,133410]
   (SSPRINT)      FTLIB4.177    1975-01-05 00:00   [11447,133410]
   (SSPRINT)      FOROTS.FDM    1974-12-02 00:13   [11447,133410]
   (SSPRINT)      LIB402.V54    1975-01-05 00:00   [11447,133410]
   (SSPRINT)      LIB402.V55    1975-01-05 00:00   [11447,133410]
   (SSPRINT)      CFORTR.131    1975-01-05 00:00   [11447,133410]
   (SSPRINT)      DDTF3 .222    1975-01-05 00:00   [11447,133410]
   (SSPRINT)      FORLIF.014    1975-01-05 00:00   [11447,133410]
   (SSPRINT)      FOROTF.013    1975-01-05 00:00   [11447,133410]
   (SSPRINT)      FOROTF.876    1975-01-05 00:00   [11447,133410]
   (SSPRINT)      FTLF32.263    1975-01-05 00:00   [11447,133410]
   (SSPRINT)      SINGLE.MAC    1984-03-10 21:21   [11447,133410]
   (SSPRINT)      DOUBLE.MAC    1984-03-10 21:21   [11447,133410]
   (SSPRINT)      FORSE .V53    1984-03-14 01:35   [11447,133410]
   (SSPRINT)      FORSE .V54    1984-03-14 01:37   [11447,133410]
   (SSPRINT)      FORSE .V55    1984-03-14 01:38   [11447,133410]
   (SSPRINT)      LIB40A.54     1975-01-05 00:00   [11447,133410]
   (SSPRINT)      DARITH.MAC    1984-03-10 21:21   [11447,133410]
   (SSPRINT)      LIB40B.54     1975-01-05 00:00   [11447,133410]
   (SSPRINT)      CFORTF.131    1975-01-05 00:00   [11447,133410]
   (SSPRINT)      CONFF .FDM    1975-01-05 00:00   [11447,133410]
   (SSPRINT)      DDTF  .021    1975-01-05 00:00   [11447,133410]
   (SSPRINT)      GAVETT.TWO    1984-03-11 03:10   [11447,133410]
   (SSPRINT)      DUMMIO.MAC    1984-03-10 21:21   [11447,133410]
   (SSPRINT)      LIB40 .CMD    1984-03-10 21:21   [11447,133410]
   (SSPRINT)      DDTF22.027    1975-01-05 00:00   [11447,133410]
   (SSPRINT)      FTLB4F.260    1975-01-05 00:00   [11447,133410]
   (SSPRINT)      FTLB4F.261    1975-01-05 00:00   [11447,133410]
   (SSPRINT)      COMPLX.MAC    1984-03-10 21:21   [11447,133410]
   (SSPRINT)      RTFORT.MAC    1984-03-10 21:21   [11447,133410]
   (SSPRINT)      TRAPS .MAC    1984-03-10 21:21   [11447,133410]
   (SSPRINT)      XYPLOT.MAC    1984-03-10 21:21   [11447,133410]
   (SSPRINT)      ERROR .MAC    1984-03-10 21:21   [11447,133410]
   (SSPRINT)      DEVTB .MAC    1984-03-10 21:21   [11447,133410]
   (SSPRINT)      DATBS .V53    1984-03-14 01:35   [11447,133410]
   (SSPRINT)      DATBS .V54    1984-03-14 01:38   [11447,133410]
   (SSPRINT)      DIRIT .INI    1984-03-14 04:24   [11447,133410]
End of saveset, written by TITO v16.  

Start of saveset, written by TITO v16.  Tape #1, 1988-10-13 12:09
System: D35-P035/E.  Tape: 6250 bpi, 9 tracks.
   (SSPRINT)      DDTF24.000    1975-01-05 00:00   [11447,133410]
   (SSPRINT)      LIB40F.261    1975-01-05 00:00   [11447,133410]
   (SSPRINT)      LIB40F.264    1975-01-05 00:00   [11447,133410]
   (SSPRINT)      ACCESS.LIS    1984-03-10 20:59   [11447,133410]
   (SSPRINT)      EXIT  .MAC    1984-03-10 21:21   [11447,133410]
   (SSPRINT)      IOADR .MAC    1984-03-10 21:21   [11447,133410]
   (SSPRINT)      MISC  .MAC    1984-03-10 21:21   [11447,133410]
   (SSPRINT)      ACCESS.MSG    1984-03-14 04:21   [11447,133410]
   (SSPRINT)      LIB401.V55    1984-03-14 05:24   [11447,133410]
   (SSPRINT)      FTLIB4.177    1975-01-05 00:00   [11447,133410]
   (SSPRINT)      FOROTS.FDM    1974-12-02 00:13   [11447,133410]
   (SSPRINT)      LIB402.V54    1975-01-05 00:00   [11447,133410]
   (SSPRINT)      LIB402.V55    1975-01-05 00:00   [11447,133410]
   (SSPRINT)      CFORTR.131    1975-01-05 00:00   [11447,133410]
   (SSPRINT)      DDTF3 .222    1975-01-05 00:00   [11447,133410]
   (SSPRINT)      FORLIF.014    1975-01-05 00:00   [11447,133410]
   (SSPRINT)      FOROTF.013    1975-01-05 00:00   [11447,133410]
   (SSPRINT)      FOROTF.876    1975-01-05 00:00   [11447,133410]
   (SSPRINT)      FTLF32.263    1975-01-05 00:00   [11447,133410]
   (SSPRINT)      SINGLE.MAC    1984-03-10 21:21   [11447,133410]
   (SSPRINT)      DOUBLE.MAC    1984-03-10 21:21   [11447,133410]
   (SSPRINT)      FORSE .V53    1984-03-14 01:35   [11447,133410]
   (SSPRINT)      FORSE .V54    1984-03-14 01:37   [11447,133410]
   (SSPRINT)      FORSE .V55    1984-03-14 01:38   [11447,133410]
   (SSPRINT)      LIB40A.54     1975-01-05 00:00   [11447,133410]
   (SSPRINT)      DARITH.MAC    1984-03-10 21:21   [11447,133410]
   (SSPRINT)      LIB40B.54     1975-01-05 00:00   [11447,133410]
   (SSPRINT)      CFORTF.131    1975-01-05 00:00   [11447,133410]
   (SSPRINT)      CONFF .FDM    1975-01-05 00:00   [11447,133410]
   (SSPRINT)      DDTF  .021    1975-01-05 00:00   [11447,133410]
   (SSPRINT)      GAVETT.TWO    1984-03-11 03:10   [11447,133410]
   (SSPRINT)      DUMMIO.MAC    1984-03-10 21:21   [11447,133410]
   (SSPRINT)      LIB40 .CMD    1984-03-10 21:21   [11447,133410]
   (SSPRINT)      DDTF22.027    1975-01-05 00:00   [11447,133410]
   (SSPRINT)      FTLB4F.260    1975-01-05 00:00   [11447,133410]
   (SSPRINT)      FTLB4F.261    1975-01-05 00:00   [11447,133410]
   (SSPRINT)      COMPLX.MAC    1984-03-10 21:21   [11447,133410]
   (SSPRINT)      RTFORT.MAC    1984-03-10 21:21   [11447,133410]
   (SSPRINT)      TRAPS .MAC    1984-03-10 21:21   [11447,133410]
   (SSPRINT)      XYPLOT.MAC    1984-03-10 21:21   [11447,133410]
   (SSPRINT)      ERROR .MAC    1984-03-10 21:21   [11447,133410]
   (SSPRINT)      DEVTB .MAC    1984-03-10 21:21   [11447,133410]
   (SSPRINT)      DATBS .V53    1984-03-14 01:35   [11447,133410]
   (SSPRINT)      DATBS .V54    1984-03-14 01:38   [11447,133410]
   (SSPRINT)      DIRIT .INI    1984-03-14 04:24   [11447,133410]
End of saveset, written by TITO v16.  

Start of saveset, written by TITO v16.  Tape #1, 1988-10-13 12:13
System: D35-P035/E.  Tape: 6250 bpi, 9 tracks.
   (SSPRINT)      DDTF24.000    1975-01-05 00:00   [11447,133410]
   (SSPRINT)      LIB40F.261    1975-01-05 00:00   [11447,133410]
   (SSPRINT)      LIB40F.264    1975-01-05 00:00   [11447,133410]
   (SSPRINT)      ACCESS.LIS    1984-03-10 20:59   [11447,133410]
   (SSPRINT)      EXIT  .MAC    1984-03-10 21:21   [11447,133410]
   (SSPRINT)      IOADR .MAC    1984-03-10 21:21   [11447,133410]
   (SSPRINT)      MISC  .MAC    1984-03-10 21:21   [11447,133410]
   (SSPRINT)      ACCESS.MSG    1984-03-14 04:21   [11447,133410]
   (SSPRINT)      LIB401.V55    1984-03-14 05:24   [11447,133410]
   (SSPRINT)      FTLIB4.177    1975-01-05 00:00   [11447,133410]
   (SSPRINT)      FOROTS.FDM    1974-12-02 00:13   [11447,133410]
   (SSPRINT)      LIB402.V54    1975-01-05 00:00   [11447,133410]
   (SSPRINT)      LIB402.V55    1975-01-05 00:00   [11447,133410]
   (SSPRINT)      CFORTR.131    1975-01-05 00:00   [11447,133410]
   (SSPRINT)      DDTF3 .222    1975-01-05 00:00   [11447,133410]
   (SSPRINT)      FORLIF.014    1975-01-05 00:00   [11447,133410]
   (SSPRINT)      FOROTF.013    1975-01-05 00:00   [11447,133410]
   (SSPRINT)      FOROTF.876    1975-01-05 00:00   [11447,133410]
   (SSPRINT)      FTLF32.263    1975-01-05 00:00   [11447,133410]
   (SSPRINT)      SINGLE.MAC    1984-03-10 21:21   [11447,133410]
   (SSPRINT)      DOUBLE.MAC    1984-03-10 21:21   [11447,133410]
   (SSPRINT)      FORSE .V53    1984-03-14 01:35   [11447,133410]
   (SSPRINT)      FORSE .V54    1984-03-14 01:37   [11447,133410]
   (SSPRINT)      FORSE .V55    1984-03-14 01:38   [11447,133410]
   (SSPRINT)      LIB40A.54     1975-01-05 00:00   [11447,133410]
   (SSPRINT)      DARITH.MAC    1984-03-10 21:21   [11447,133410]
   (SSPRINT)      LIB40B.54     1975-01-05 00:00   [11447,133410]
   (SSPRINT)      CFORTF.131    1975-01-05 00:00   [11447,133410]
   (SSPRINT)      CONFF .FDM    1975-01-05 00:00   [11447,133410]
   (SSPRINT)      DDTF  .021    1975-01-05 00:00   [11447,133410]
   (SSPRINT)      GAVETT.TWO    1984-03-11 03:10   [11447,133410]
   (SSPRINT)      DUMMIO.MAC    1984-03-10 21:21   [11447,133410]
   (SSPRINT)      LIB40 .CMD    1984-03-10 21:21   [11447,133410]
   (SSPRINT)      DDTF22.027    1975-01-05 00:00   [11447,133410]
   (SSPRINT)      FTLB4F.260    1975-01-05 00:00   [11447,133410]
   (SSPRINT)      FTLB4F.261    1975-01-05 00:00   [11447,133410]
   (SSPRINT)      COMPLX.MAC    1984-03-10 21:21   [11447,133410]
   (SSPRINT)      RTFORT.MAC    1984-03-10 21:21   [11447,133410]
   (SSPRINT)      TRAPS .MAC    1984-03-10 21:21   [11447,133410]
   (SSPRINT)      XYPLOT.MAC    1984-03-10 21:21   [11447,133410]
   (SSPRINT)      ERROR .MAC    1984-03-10 21:21   [11447,133410]
   (SSPRINT)      DEVTB .MAC    1984-03-10 21:21   [11447,133410]
   (SSPRINT)      DATBS .V53    1984-03-14 01:35   [11447,133410]
   (SSPRINT)      DATBS .V54    1984-03-14 01:38   [11447,133410]
   (SSPRINT)      DIRIT .INI    1984-03-14 04:24   [11447,133410]
End of saveset, written by TITO v16.  

Start of saveset, written by TITO v16.  Tape #1, 1983-09-08 19:14
System: C36-P034/K.  Tape: 1600 bpi, 9 tracks.
   (TYMXMTS)      D5DHS7.MR0    1983-04-29 22:59   [3,375362]
   (TYMXMTS)      D5DHS7.MB0    1983-04-30 22:59   [3,375362]
   (TYMXMTS)      QH0X07.MP0    1983-01-31 00:51   [3,375362]
   (TYMXMTS)      QHY3WK.ME0    1981-12-20 07:33   [3,375362]
   (TYMXMTS)      QHY3WK.MP0    1982-07-27 03:51   [3,375362]
   (TYMXMTS)      UUPEMI.MP0    1982-07-13 01:26   [3,375362]
   (TYMXMTS)      NAILK5.MP0    1982-07-14 01:03   [3,375362]
   (TYMXMTS)      THRDMH.MP0    1981-07-27 23:45   [3,375362]
   (TYMXMTS)      LTHPSJ.ME0    1981-06-01 15:25   [3,375362]
   (TYMXMTS)      M0KXFL.MP0    1981-06-01 15:07   [3,375362]
   (TYMXMTS)      TASK  .DAT    1982-05-01 21:36   [3,375362]
   (TYMXMTS)      THRDMH.ME0    1982-06-23 20:30   [3,375362]
   (TYMXMTS)      NAILK5.ME0    1982-07-08 00:57   [3,375362]
   (TYMXMTS)      UUPEMI.ME0    1982-07-08 01:19   [3,375362]
   (TYMXMTS)      DDHODH.ME0    1982-07-13 01:14   [3,375362]
   (TYMXMTS)      MAIN  .VUE    1982-07-15 00:20   [3,375362]
   (TYMXMTS)      M0KXFL.ME0    1981-06-01 15:05   [3,375362]
   (TYMXMTS)      QH0X07.ME0    1983-01-31 00:51   [3,375362]
   (TYMXMTS)      A889OB.MA0    1983-08-21 02:42   [3,375362]
   (TYMXMTS)      A889OB.MD0    1983-01-31 00:52   [3,375362]
   (TYMXMTS)      D5DHP4.MP0    1982-06-16 23:43   [3,375362]
   (TYMXMTS)      TG668J.MP0    1982-09-29 22:24   [3,375362]
   (TYMXMTS)      JW8X7R.MR0    1983-06-07 04:30   [3,375362]
   (TYMXMTS)      A889OB.MX0    1983-01-09 00:51   [3,375362]
   (TYMXMTS)      JW8X7R.MB0    1983-04-30 22:59   [3,375362]
   (TYMXMTS)      A889OB.MS0    1982-04-01 00:20   [3,375362]
   (TYMXMTS)      OMIDSE.MP0    1982-03-13 00:36   [3,375362]
   (TYMXMTS)      OMIDSE.ME0    1982-03-13 00:36   [3,375362]
   (TYMXMTS)      MAILIN.OLD    1982-01-21 22:46   [3,375362]
   (TYMXMTS)      B188SL.MP0    1981-11-23 01:39   [3,375362]
   (TYMXMTS)      B188SL.ME0    1981-11-23 01:38   [3,375362]
   (TYMXMTS)      NODE  .ASF    1981-09-05 03:20   [3,375362]
   (TYMXMTS)      OO5XYK.ME0    1981-07-22 11:17   [3,375362]
   (TYMXMTS)      W6RDDZ.MP0    1981-07-03 08:26   [3,375362]
   (TYMXMTS)      W6RDDZ.ME0    1981-07-03 08:25   [3,375362]
   (TYMXMTS)      MAGBUG.MEM    1981-06-08 16:36   [3,375362]
   (TYMXMTS)      TR01YS.ME0    1981-05-06 12:02   [3,375362]
   (TYMXMTS)      JKFJDX.MR0    1981-05-05 13:32   [3,375362]
   (TYMXMTS)      JKFJDX.MB0    1981-05-05 13:03   [3,375362]
   (TYMXMTS)      PROJ  .INS    1981-03-22 01:43   [3,375362]
   (TYMXMTS)      D5DHP4.ME0    1982-06-16 23:42   [3,375362]
   (TYMXMTS)      HWQOMC.ME0    1982-06-23 20:58   [3,375362]
   (TYMXMTS)      HWQOMC.MP0    1982-06-23 20:59   [3,375362]
   (TYMXMTS)      RES   .STD    1982-07-20 20:42   [3,375362]
   (TYMXMTS)      TS    .CMD    1983-04-29 23:48   [3,375362]
   (TYMXMTS)      TG668J.ME0    1982-09-29 22:22   [3,375362]
   (TYMXMTS)      YK6ATS.ME0    1982-04-22 21:28   [3,375362]
   (TYMXMTS)      Y9ONQW.MR0    1983-08-16 23:52   [3,375362]
   (TYMXMTS)      XK6BTZ.MR0    1983-04-24 22:58   [3,375362]
   (TYMXMTS)      Y9ONQW.MB0    1983-04-30 22:59   [3,375362]
   (TYMXMTS)      NH3JWJ.MP0    1982-08-06 01:22   [3,375362]
   (TYMXMTS)      OMKQSE.MP0    1982-03-13 00:18   [3,375362]
   (TYMXMTS)      OMKQSE.ME0    1982-03-13 00:17   [3,375362]
   (TYMXMTS)      DZLCQD.MP0    1981-12-20 02:33   [3,375362]
   (TYMXMTS)      DZLCQD.ME0    1981-12-20 02:32   [3,375362]
   (TYMXMTS)      E3PQYB.MP0    1981-10-19 02:06   [3,375362]
   (TYMXMTS)      J2HUZV.MP0    1981-09-05 10:05   [3,375362]
   (TYMXMTS)      ZOMAHC.MP0    1981-09-05 01:25   [3,375362]
   (TYMXMTS)      S90T66.MP0    1981-07-27 14:53   [3,375362]
   (TYMXMTS)      ZOMAHC.ME0    1981-07-03 10:03   [3,375362]
   (TYMXMTS)      JTXSDX.MR0    1983-04-24 22:58   [3,375362]
   (TYMXMTS)      NSSXFL.MP0    1981-06-01 15:17   [3,375362]
   (TYMXMTS)      NSSXFL.ME0    1981-06-01 15:16   [3,375362]
   (TYMXMTS)      JTXSDX.MB0    1983-04-30 22:58   [3,375362]
   (TYMXMTS)      ONIFBT.ME0    1981-05-06 12:02   [3,375362]
   (TYMXMTS)      NC09YS.ME0    1981-05-06 12:01   [3,375362]
   (TYMXMTS)      JMS1O5.ME0    1981-05-03 11:51   [3,375362]
   (TYMXMTS)      E3PQYB.ME0    1981-05-01 05:51   [3,375362]
   (TYMXMTS)      XK6BTZ.MB0    1983-04-30 22:58   [3,375362]
   (TYMXMTS)      TEST1 .       1982-06-13 00:19   [3,375362]
   (TYMXMTS)      S90T66.ME0    1982-06-23 20:47   [3,375362]
   (TYMXMTS)      OO1FGC.MP0    1982-07-13 01:02   [3,375362]
   (TYMXMTS)      OO1FGC.ME0    1982-07-07 00:56   [3,375362]
   (TYMXMTS)      JP1R7R.ME0    1982-07-20 01:40   [3,375362]
   (TYMXMTS)      NH3JWJ.ME0    1982-08-06 01:18   [3,375362]
   (TYMXMTS)      L5LBJ9.MP0    1983-01-09 19:44   [3,375362]
   (TYMXMTS)      ZONRFB.MR0    1983-06-07 04:30   [3,375362]
   (TYMXMTS)      JHDNJ9.MR0    1983-08-16 23:52   [3,375362]
   (TYMXMTS)      JHDNJ9.MB0    1983-04-30 23:00   [3,375362]
   (TYMXMTS)      ZONRFB.MB0    1982-07-15 21:42   [3,375362]
   (TYMXMTS)      YVHT7H.MP0    1982-07-14 01:09   [3,375362]
   (TYMXMTS)      BUG   .MEM    1982-02-29 22:01   [3,375362]
   (TYMXMTS)      TIME  .MSG    1981-11-26 22:53   [3,375362]
   (TYMXMTS)      OMM74E.MP0    1982-09-22 01:09   [3,375362]
   (TYMXMTS)      WZW4QR.MP0    1981-10-18 04:46   [3,375362]
   (TYMXMTS)      OO409I.MP0    1981-10-16 11:04   [3,375362]
   (TYMXMTS)      OO409I.ME0    1981-10-16 11:02   [3,375362]
   (TYMXMTS)      YVRDE9.MP0    1981-07-03 15:53   [3,375362]
   (TYMXMTS)      YVRDE9.ME0    1981-07-03 15:48   [3,375362]
   (TYMXMTS)      NEWS  .TXT    1981-05-29 12:49   [3,375362]
   (TYMXMTS)      RETRVE.LST    1981-05-07 04:53   [3,375362]
   (TYMXMTS)      DDHS3Q.ME0    1981-05-06 12:03   [3,375362]
   (TYMXMTS)      TEST2 .       1982-06-13 00:20   [3,375362]
   (TYMXMTS)      NT    .OLD    1982-06-18 01:12   [3,375362]
   (TYMXMTS)      OOC3XW.MP0    1982-07-13 01:27   [3,375362]
   (TYMXMTS)      OOC3XW.ME0    1982-07-03 01:37   [3,375362]
   (TYMXMTS)      YVHT7H.ME0    1982-07-03 03:01   [3,375362]
   (TYMXMTS)      OMM74E.ME0    1982-07-08 01:29   [3,375362]
   (TYMXMTS)      L5LBJ9.BAK    1982-09-30 01:07   [3,375362]
   (TYMXMTS)      L5LBJ9.ME0    1983-01-09 19:41   [3,375362]
   (TYMXMTS)      JW880Y.MR0    1983-08-16 23:52   [3,375362]
   (TYMXMTS)      Y9ONDJ.MR0    1983-08-16 23:52   [3,375362]
   (TYMXMTS)      ZOMS6Z.MR0    1983-06-07 04:30   [3,375362]
   (TYMXMTS)      STATS .MZ0    1983-04-29 23:49   [3,375362]
   (TYMXMTS)      JW880Y.MB0    1983-04-30 22:59   [3,375362]
   (TYMXMTS)      Y9ONDJ.MB0    1983-04-30 22:58   [3,375362]
   (TYMXMTS)      ZOMS6Z.MB0    1982-07-15 21:41   [3,375362]
   (TYMXMTS)      Y9OOI6.MP0    1982-04-01 22:02   [3,375362]
   (TYMXMTS)      HYWIWO.MP0    1982-07-27 04:20   [3,375362]
   (TYMXMTS)      HYWIWO.ME0    1982-03-14 01:12   [3,375362]
   (TYMXMTS)      QZ9XD6.MP0    1982-09-30 01:45   [3,375362]
   (TYMXMTS)      TMUSRS.CMD    1981-11-30 15:10   [3,375362]
   (TYMXMTS)      OODV9S.ME0    1981-10-19 04:05   [3,375362]
   (TYMXMTS)      MANPOW.DAT    1981-09-21 03:41   [3,375362]
   (TYMXMTS)      Y89OL5.ME0    1981-09-07 06:10   [3,375362]
   (TYMXMTS)      TSGEN .SAM    1981-08-07 19:12   [3,375362]
   (TYMXMTS)      TSGEN .EXA    1981-08-07 19:10   [3,375362]
   (TYMXMTS)      ARCHIV.LST    1981-05-07 04:52   [3,375362]
   (TYMXMTS)      MTS   .CMD    1981-03-22 01:49   [3,375362]
   (TYMXMTS)      TEXT  .DIR    1981-01-26 05:54   [3,375362]
   (TYMXMTS)      TEXT  .CMD    1981-01-26 05:54   [3,375362]
   (TYMXMTS)      TEXT  .SNO    1981-01-26 05:54   [3,375362]
   (TYMXMTS)      TEXT  .MAC    1981-01-26 05:54   [3,375362]
   (TYMXMTS)      TEXT  .SAV    1981-01-26 05:53   [3,375362]
   (TYMXMTS)      PRODSC.OLD    1981-07-04 01:56   [3,375362]
   (TYMXMTS)      MCH   .REV    1982-06-23 20:20   [3,375362]
   (TYMXMTS)      MCH   .I1     1982-06-23 20:21   [3,375362]
   (TYMXMTS)      MCH   .I2     1982-06-23 20:22   [3,375362]
   (TYMXMTS)      MCH   .MAF    1982-06-23 20:37   [3,375362]
   (TYMXMTS)      MCH   .HRS    1982-06-23 20:57   [3,375362]
   (TYMXMTS)      QZ9XD6.ME0    1982-07-13 01:05   [3,375362]
   (TYMXMTS)      GOG5UH.ME0    1982-05-29 20:52   [3,375362]
   (TYMXMTS)      MTS   .STD    1982-06-18 23:03   [3,375362]
   (TYMXMTS)      M6TWXL.ME0    1982-07-31 00:42   [3,375362]
   (TYMXMTS)      HTHG8Z.ME0    1982-09-22 01:10   [3,375362]
   (TYMXMTS)      LDPLN .MAG    1982-10-05 01:18   [3,375362]
   (TYMXMTS)      DMPPLN.MAG    1982-10-05 01:21   [3,375362]
   (TYMXMTS)      W6HT7V.MP0    1982-10-06 01:37   [3,375362]
   (TYMXMTS)      W6HT7V.ME0    1982-10-06 01:37   [3,375362]
   (TYMXMTS)      MAGNUM.DIR    1983-04-30 22:58   [3,375362]
   (TYMXMTS)      USRS  .CMD    1982-04-19 21:09   [3,375362]
   (TYMXMTS)      RS8MIK.MP0    1982-07-15 00:22   [3,375362]
   (TYMXMTS)      D5DHPT.ME0    1982-04-01 00:20   [3,375362]
   (TYMXMTS)      JXPUSG.MP0    1982-01-25 21:54   [3,375362]
   (TYMXMTS)      O0DS8M.MP0    1982-07-27 03:58   [3,375362]
   (TYMXMTS)      O0DS8M.ME0    1981-12-19 06:45   [3,375362]
   (TYMXMTS)      JXPUSG.ME0    1981-11-23 01:03   [3,375362]
   (TYMXMTS)      ONAASE.MP0    1981-11-16 17:56   [3,375362]
   (TYMXMTS)      JP6G5V.MP0    1982-07-27 04:23   [3,375362]
   (TYMXMTS)      TV9ATT.MP0    1982-09-22 01:13   [3,375362]
   (TYMXMTS)      JW8XB6.MP0    1982-07-14 01:09   [3,375362]
   (TYMXMTS)      NHIT3J.MP0    1981-11-03 22:16   [3,375362]
   (TYMXMTS)      ON7QGY.ME0    1981-10-19 00:32   [3,375362]
   (TYMXMTS)      ZOO7TW.MP0    1981-09-23 20:10   [3,375362]
   (TYMXMTS)      JOAY26.MP0    1981-07-04 00:59   [3,375362]
   (TYMXMTS)      JOAY26.ME0    1981-07-04 00:57   [3,375362]
   (TYMXMTS)      NJYGAE.ME0    1981-07-03 15:35   [3,375362]
   (TYMXMTS)      NHIT3J.ME0    1981-07-03 10:05   [3,375362]
   (TYMXMTS)      OQIT0X.MR0    1983-04-24 22:59   [3,375362]
   (TYMXMTS)      OQIT0X.MB0    1983-04-30 22:59   [3,375362]
   (TYMXMTS)      ZOOTSI.MP0    1981-06-01 15:23   [3,375362]
   (TYMXMTS)      ZOOTSI.ME0    1981-05-06 12:43   [3,375362]
   (TYMXMTS)      GZW4PB.ME0    1981-05-03 11:51   [3,375362]
   (TYMXMTS)      ZOO7TW.ME0    1981-05-01 06:59   [3,375362]
   (TYMXMTS)      GZW4PB.MP0    1981-04-29 02:45   [3,375362]
   (TYMXMTS)      PRELMS.OLD    1981-09-18 18:42   [3,375362]
   (TYMXMTS)      JW8XB6.ME0    1982-07-03 01:35   [3,375362]
   (TYMXMTS)      JP6G5V.ME0    1982-07-08 01:01   [3,375362]
   (TYMXMTS)      WHS3HJ.ME0    1982-07-14 01:27   [3,375362]
   (TYMXMTS)      RS8MIK.ME0    1982-07-15 00:20   [3,375362]
   (TYMXMTS)      ONAASE.ME0    1982-07-20 20:22   [3,375362]
   (TYMXMTS)      ILA4LZ.ME0    1982-07-31 00:55   [3,375362]
   (TYMXMTS)      TV9ATT.ME0    1982-09-22 01:13   [3,375362]
   (TYMXMTS)      N5Z5D0.ME0    1982-09-29 00:32   [3,375362]
   (TYMXMTS)      NYCIWX.MR0    1983-06-07 04:30   [3,375362]
   (TYMXMTS)      JVHHA9.MR0    1983-04-29 22:58   [3,375362]
   (TYMXMTS)      ZOM8KF.MR0    1983-03-29 18:04   [3,375362]
   (TYMXMTS)      PURGE .LOG    1982-11-16 18:04   [3,375362]
   (TYMXMTS)      OO7KLS.MP0    1982-04-15 00:03   [3,375362]
   (TYMXMTS)      JVHHA9.MB0    1983-04-30 22:58   [3,375362]
   (TYMXMTS)      ZOM8KF.MB0    1982-07-15 21:41   [3,375362]
   (TYMXMTS)      SID00U.MP0    1982-07-14 01:13   [3,375362]
   (TYMXMTS)      OO7KLS.ME0    1982-03-13 00:17   [3,375362]
   (TYMXMTS)      PC70OL.MP0    1982-02-30 20:13   [3,375362]
   (TYMXMTS)      MGRS  .CMD    1981-11-23 01:40   [3,375362]
   (TYMXMTS)      JYRLS9.MP0    1982-07-27 04:24   [3,375362]
   (TYMXMTS)      USRBZ0.MP0    1982-07-14 01:13   [3,375362]
   (TYMXMTS)      DVWMKD.MP0    1981-10-06 20:40   [3,375362]
   (TYMXMTS)      ZONMQF.ME0    1981-09-24 12:20   [3,375362]
   (TYMXMTS)      Y9OMHW.MP0    1981-09-22 19:12   [3,375362]
   (TYMXMTS)      ZONMQF.MP0    1981-09-09 15:22   [3,375362]
   (TYMXMTS)      THRDMG.MP0    1981-07-27 23:55   [3,375362]
   (TYMXMTS)      NYCIWX.MB0    1983-04-30 23:00   [3,375362]
   (TYMXMTS)      QVMEV0.MP0    1981-06-28 23:49   [3,375362]
   (TYMXMTS)      D5DHE6.MP0    1981-06-08 16:34   [3,375362]
   (TYMXMTS)      D5DHE6.ME0    1981-06-08 16:33   [3,375362]
   (TYMXMTS)      SCHED .DAT    1981-06-01 14:27   [3,375362]
   (TYMXMTS)      OO5WZB.MR0    1983-04-29 22:59   [3,375362]
   (TYMXMTS)      OO5WZB.MB0    1983-04-30 22:59   [3,375362]
   (TYMXMTS)      Y9OMHW.ME0    1981-03-12 20:12   [3,375362]
   (TYMXMTS)      TSVKZ9.ME0    1981-03-12 19:44   [3,375362]
   (TYMXMTS)      QVMEV0.ME0    1981-03-06 08:21   [3,375362]
   (TYMXMTS)      YVWMKD.ME0    1981-01-26 05:52   [3,375362]
   (TYMXMTS)      YVWMKD.MP0    1981-01-26 05:51   [3,375362]
   (TYMXMTS)      THRDMG.ME0    1982-06-23 20:26   [3,375362]
   (TYMXMTS)      SID00U.ME0    1982-07-08 01:12   [3,375362]
   (TYMXMTS)      USRBZ0.ME0    1982-07-08 01:14   [3,375362]
   (TYMXMTS)      JYRLS9.ME0    1982-07-08 01:28   [3,375362]
   (TYMXMTS)      TEXTS .TXT    1982-07-20 19:10   [3,375362]
End of saveset, written by TITO v16.  

Start of saveset, written by TITO v16.  Tape #1, 1983-09-08 19:18
System: C36-P034/K.  Tape: 1600 bpi, 9 tracks.
   (TYMXMTS)      D5DHS7.MR0    1983-04-29 22:59   [3,375362]
   (TYMXMTS)      D5DHS7.MB0    1983-04-30 22:59   [3,375362]
   (TYMXMTS)      QH0X07.MP0    1983-01-31 00:51   [3,375362]
   (TYMXMTS)      QHY3WK.ME0    1981-12-20 07:33   [3,375362]
   (TYMXMTS)      QHY3WK.MP0    1982-07-27 03:51   [3,375362]
   (TYMXMTS)      UUPEMI.MP0    1982-07-13 01:26   [3,375362]
   (TYMXMTS)      NAILK5.MP0    1982-07-14 01:03   [3,375362]
   (TYMXMTS)      THRDMH.MP0    1981-07-27 23:45   [3,375362]
   (TYMXMTS)      LTHPSJ.ME0    1981-06-01 15:25   [3,375362]
   (TYMXMTS)      M0KXFL.MP0    1981-06-01 15:07   [3,375362]
   (TYMXMTS)      TASK  .DAT    1982-05-01 21:36   [3,375362]
   (TYMXMTS)      THRDMH.ME0    1982-06-23 20:30   [3,375362]
   (TYMXMTS)      NAILK5.ME0    1982-07-08 00:57   [3,375362]
   (TYMXMTS)      UUPEMI.ME0    1982-07-08 01:19   [3,375362]
   (TYMXMTS)      DDHODH.ME0    1982-07-13 01:14   [3,375362]
   (TYMXMTS)      MAIN  .VUE    1982-07-15 00:20   [3,375362]
   (TYMXMTS)      M0KXFL.ME0    1981-06-01 15:05   [3,375362]
   (TYMXMTS)      QH0X07.ME0    1983-01-31 00:51   [3,375362]
   (TYMXMTS)      A889OB.MA0    1983-08-21 02:42   [3,375362]
   (TYMXMTS)      A889OB.MD0    1983-01-31 00:52   [3,375362]
   (TYMXMTS)      D5DHP4.MP0    1982-06-16 23:43   [3,375362]
   (TYMXMTS)      TG668J.MP0    1982-09-29 22:24   [3,375362]
   (TYMXMTS)      JW8X7R.MR0    1983-06-07 04:30   [3,375362]
   (TYMXMTS)      A889OB.MX0    1983-01-09 00:51   [3,375362]
   (TYMXMTS)      JW8X7R.MB0    1983-04-30 22:59   [3,375362]
   (TYMXMTS)      A889OB.MS0    1982-04-01 00:20   [3,375362]
   (TYMXMTS)      OMIDSE.MP0    1982-03-13 00:36   [3,375362]
   (TYMXMTS)      OMIDSE.ME0    1982-03-13 00:36   [3,375362]
   (TYMXMTS)      MAILIN.OLD    1982-01-21 22:46   [3,375362]
   (TYMXMTS)      B188SL.MP0    1981-11-23 01:39   [3,375362]
   (TYMXMTS)      B188SL.ME0    1981-11-23 01:38   [3,375362]
   (TYMXMTS)      NODE  .ASF    1981-09-05 03:20   [3,375362]
   (TYMXMTS)      OO5XYK.ME0    1981-07-22 11:17   [3,375362]
   (TYMXMTS)      W6RDDZ.MP0    1981-07-03 08:26   [3,375362]
   (TYMXMTS)      W6RDDZ.ME0    1981-07-03 08:25   [3,375362]
   (TYMXMTS)      MAGBUG.MEM    1981-06-08 16:36   [3,375362]
   (TYMXMTS)      TR01YS.ME0    1981-05-06 12:02   [3,375362]
   (TYMXMTS)      JKFJDX.MR0    1981-05-05 13:32   [3,375362]
   (TYMXMTS)      JKFJDX.MB0    1981-05-05 13:03   [3,375362]
   (TYMXMTS)      PROJ  .INS    1981-03-22 01:43   [3,375362]
   (TYMXMTS)      D5DHP4.ME0    1982-06-16 23:42   [3,375362]
   (TYMXMTS)      HWQOMC.ME0    1982-06-23 20:58   [3,375362]
   (TYMXMTS)      HWQOMC.MP0    1982-06-23 20:59   [3,375362]
   (TYMXMTS)      RES   .STD    1982-07-20 20:42   [3,375362]
   (TYMXMTS)      TS    .CMD    1983-04-29 23:48   [3,375362]
   (TYMXMTS)      TG668J.ME0    1982-09-29 22:22   [3,375362]
   (TYMXMTS)      YK6ATS.ME0    1982-04-22 21:28   [3,375362]
   (TYMXMTS)      Y9ONQW.MR0    1983-08-16 23:52   [3,375362]
   (TYMXMTS)      XK6BTZ.MR0    1983-04-24 22:58   [3,375362]
   (TYMXMTS)      Y9ONQW.MB0    1983-04-30 22:59   [3,375362]
   (TYMXMTS)      NH3JWJ.MP0    1982-08-06 01:22   [3,375362]
   (TYMXMTS)      OMKQSE.MP0    1982-03-13 00:18   [3,375362]
   (TYMXMTS)      OMKQSE.ME0    1982-03-13 00:17   [3,375362]
   (TYMXMTS)      DZLCQD.MP0    1981-12-20 02:33   [3,375362]
   (TYMXMTS)      DZLCQD.ME0    1981-12-20 02:32   [3,375362]
   (TYMXMTS)      E3PQYB.MP0    1981-10-19 02:06   [3,375362]
   (TYMXMTS)      J2HUZV.MP0    1981-09-05 10:05   [3,375362]
   (TYMXMTS)      ZOMAHC.MP0    1981-09-05 01:25   [3,375362]
   (TYMXMTS)      S90T66.MP0    1981-07-27 14:53   [3,375362]
   (TYMXMTS)      ZOMAHC.ME0    1981-07-03 10:03   [3,375362]
   (TYMXMTS)      JTXSDX.MR0    1983-04-24 22:58   [3,375362]
   (TYMXMTS)      NSSXFL.MP0    1981-06-01 15:17   [3,375362]
   (TYMXMTS)      NSSXFL.ME0    1981-06-01 15:16   [3,375362]
   (TYMXMTS)      JTXSDX.MB0    1983-04-30 22:58   [3,375362]
   (TYMXMTS)      ONIFBT.ME0    1981-05-06 12:02   [3,375362]
   (TYMXMTS)      NC09YS.ME0    1981-05-06 12:01   [3,375362]
   (TYMXMTS)      JMS1O5.ME0    1981-05-03 11:51   [3,375362]
   (TYMXMTS)      E3PQYB.ME0    1981-05-01 05:51   [3,375362]
   (TYMXMTS)      XK6BTZ.MB0    1983-04-30 22:58   [3,375362]
   (TYMXMTS)      TEST1 .       1982-06-13 00:19   [3,375362]
   (TYMXMTS)      S90T66.ME0    1982-06-23 20:47   [3,375362]
   (TYMXMTS)      OO1FGC.MP0    1982-07-13 01:02   [3,375362]
   (TYMXMTS)      OO1FGC.ME0    1982-07-07 00:56   [3,375362]
   (TYMXMTS)      JP1R7R.ME0    1982-07-20 01:40   [3,375362]
   (TYMXMTS)      NH3JWJ.ME0    1982-08-06 01:18   [3,375362]
   (TYMXMTS)      L5LBJ9.MP0    1983-01-09 19:44   [3,375362]
   (TYMXMTS)      ZONRFB.MR0    1983-06-07 04:30   [3,375362]
   (TYMXMTS)      JHDNJ9.MR0    1983-08-16 23:52   [3,375362]
   (TYMXMTS)      JHDNJ9.MB0    1983-04-30 23:00   [3,375362]
   (TYMXMTS)      ZONRFB.MB0    1982-07-15 21:42   [3,375362]
   (TYMXMTS)      YVHT7H.MP0    1982-07-14 01:09   [3,375362]
   (TYMXMTS)      BUG   .MEM    1982-02-29 22:01   [3,375362]
   (TYMXMTS)      TIME  .MSG    1981-11-26 22:53   [3,375362]
   (TYMXMTS)      OMM74E.MP0    1982-09-22 01:09   [3,375362]
   (TYMXMTS)      WZW4QR.MP0    1981-10-18 04:46   [3,375362]
   (TYMXMTS)      OO409I.MP0    1981-10-16 11:04   [3,375362]
   (TYMXMTS)      OO409I.ME0    1981-10-16 11:02   [3,375362]
   (TYMXMTS)      YVRDE9.MP0    1981-07-03 15:53   [3,375362]
   (TYMXMTS)      YVRDE9.ME0    1981-07-03 15:48   [3,375362]
   (TYMXMTS)      NEWS  .TXT    1981-05-29 12:49   [3,375362]
   (TYMXMTS)      RETRVE.LST    1981-05-07 04:53   [3,375362]
   (TYMXMTS)      DDHS3Q.ME0    1981-05-06 12:03   [3,375362]
   (TYMXMTS)      TEST2 .       1982-06-13 00:20   [3,375362]
   (TYMXMTS)      NT    .OLD    1982-06-18 01:12   [3,375362]
   (TYMXMTS)      OOC3XW.MP0    1982-07-13 01:27   [3,375362]
   (TYMXMTS)      OOC3XW.ME0    1982-07-03 01:37   [3,375362]
   (TYMXMTS)      YVHT7H.ME0    1982-07-03 03:01   [3,375362]
   (TYMXMTS)      OMM74E.ME0    1982-07-08 01:29   [3,375362]
   (TYMXMTS)      L5LBJ9.BAK    1982-09-30 01:07   [3,375362]
   (TYMXMTS)      L5LBJ9.ME0    1983-01-09 19:41   [3,375362]
   (TYMXMTS)      JW880Y.MR0    1983-08-16 23:52   [3,375362]
   (TYMXMTS)      Y9ONDJ.MR0    1983-08-16 23:52   [3,375362]
   (TYMXMTS)      ZOMS6Z.MR0    1983-06-07 04:30   [3,375362]
   (TYMXMTS)      STATS .MZ0    1983-04-29 23:49   [3,375362]
   (TYMXMTS)      JW880Y.MB0    1983-04-30 22:59   [3,375362]
   (TYMXMTS)      Y9ONDJ.MB0    1983-04-30 22:58   [3,375362]
   (TYMXMTS)      ZOMS6Z.MB0    1982-07-15 21:41   [3,375362]
   (TYMXMTS)      Y9OOI6.MP0    1982-04-01 22:02   [3,375362]
   (TYMXMTS)      HYWIWO.MP0    1982-07-27 04:20   [3,375362]
   (TYMXMTS)      HYWIWO.ME0    1982-03-14 01:12   [3,375362]
   (TYMXMTS)      QZ9XD6.MP0    1982-09-30 01:45   [3,375362]
   (TYMXMTS)      TMUSRS.CMD    1981-11-30 15:10   [3,375362]
   (TYMXMTS)      OODV9S.ME0    1981-10-19 04:05   [3,375362]
   (TYMXMTS)      MANPOW.DAT    1981-09-21 03:41   [3,375362]
   (TYMXMTS)      Y89OL5.ME0    1981-09-07 06:10   [3,375362]
   (TYMXMTS)      TSGEN .SAM    1981-08-07 19:12   [3,375362]
   (TYMXMTS)      TSGEN .EXA    1981-08-07 19:10   [3,375362]
   (TYMXMTS)      ARCHIV.LST    1981-05-07 04:52   [3,375362]
   (TYMXMTS)      MTS   .CMD    1981-03-22 01:49   [3,375362]
   (TYMXMTS)      TEXT  .DIR    1981-01-26 05:54   [3,375362]
   (TYMXMTS)      TEXT  .CMD    1981-01-26 05:54   [3,375362]
   (TYMXMTS)      TEXT  .SNO    1981-01-26 05:54   [3,375362]
   (TYMXMTS)      TEXT  .MAC    1981-01-26 05:54   [3,375362]
   (TYMXMTS)      TEXT  .SAV    1981-01-26 05:53   [3,375362]
   (TYMXMTS)      PRODSC.OLD    1981-07-04 01:56   [3,375362]
   (TYMXMTS)      MCH   .REV    1982-06-23 20:20   [3,375362]
   (TYMXMTS)      MCH   .I1     1982-06-23 20:21   [3,375362]
   (TYMXMTS)      MCH   .I2     1982-06-23 20:22   [3,375362]
   (TYMXMTS)      MCH   .MAF    1982-06-23 20:37   [3,375362]
   (TYMXMTS)      MCH   .HRS    1982-06-23 20:57   [3,375362]
   (TYMXMTS)      QZ9XD6.ME0    1982-07-13 01:05   [3,375362]
   (TYMXMTS)      GOG5UH.ME0    1982-05-29 20:52   [3,375362]
   (TYMXMTS)      MTS   .STD    1982-06-18 23:03   [3,375362]
   (TYMXMTS)      M6TWXL.ME0    1982-07-31 00:42   [3,375362]
   (TYMXMTS)      HTHG8Z.ME0    1982-09-22 01:10   [3,375362]
   (TYMXMTS)      LDPLN .MAG    1982-10-05 01:18   [3,375362]
   (TYMXMTS)      DMPPLN.MAG    1982-10-05 01:21   [3,375362]
   (TYMXMTS)      W6HT7V.MP0    1982-10-06 01:37   [3,375362]
   (TYMXMTS)      W6HT7V.ME0    1982-10-06 01:37   [3,375362]
   (TYMXMTS)      MAGNUM.DIR    1983-04-30 22:58   [3,375362]
   (TYMXMTS)      USRS  .CMD    1982-04-19 21:09   [3,375362]
   (TYMXMTS)      RS8MIK.MP0    1982-07-15 00:22   [3,375362]
   (TYMXMTS)      D5DHPT.ME0    1982-04-01 00:20   [3,375362]
   (TYMXMTS)      JXPUSG.MP0    1982-01-25 21:54   [3,375362]
   (TYMXMTS)      O0DS8M.MP0    1982-07-27 03:58   [3,375362]
   (TYMXMTS)      O0DS8M.ME0    1981-12-19 06:45   [3,375362]
   (TYMXMTS)      JXPUSG.ME0    1981-11-23 01:03   [3,375362]
   (TYMXMTS)      ONAASE.MP0    1981-11-16 17:56   [3,375362]
   (TYMXMTS)      JP6G5V.MP0    1982-07-27 04:23   [3,375362]
   (TYMXMTS)      TV9ATT.MP0    1982-09-22 01:13   [3,375362]
   (TYMXMTS)      JW8XB6.MP0    1982-07-14 01:09   [3,375362]
   (TYMXMTS)      NHIT3J.MP0    1981-11-03 22:16   [3,375362]
   (TYMXMTS)      ON7QGY.ME0    1981-10-19 00:32   [3,375362]
   (TYMXMTS)      ZOO7TW.MP0    1981-09-23 20:10   [3,375362]
   (TYMXMTS)      JOAY26.MP0    1981-07-04 00:59   [3,375362]
   (TYMXMTS)      JOAY26.ME0    1981-07-04 00:57   [3,375362]
   (TYMXMTS)      NJYGAE.ME0    1981-07-03 15:35   [3,375362]
   (TYMXMTS)      NHIT3J.ME0    1981-07-03 10:05   [3,375362]
   (TYMXMTS)      OQIT0X.MR0    1983-04-24 22:59   [3,375362]
   (TYMXMTS)      OQIT0X.MB0    1983-04-30 22:59   [3,375362]
   (TYMXMTS)      ZOOTSI.MP0    1981-06-01 15:23   [3,375362]
   (TYMXMTS)      ZOOTSI.ME0    1981-05-06 12:43   [3,375362]
   (TYMXMTS)      GZW4PB.ME0    1981-05-03 11:51   [3,375362]
   (TYMXMTS)      ZOO7TW.ME0    1981-05-01 06:59   [3,375362]
   (TYMXMTS)      GZW4PB.MP0    1981-04-29 02:45   [3,375362]
   (TYMXMTS)      PRELMS.OLD    1981-09-18 18:42   [3,375362]
   (TYMXMTS)      JW8XB6.ME0    1982-07-03 01:35   [3,375362]
   (TYMXMTS)      JP6G5V.ME0    1982-07-08 01:01   [3,375362]
   (TYMXMTS)      WHS3HJ.ME0    1982-07-14 01:27   [3,375362]
   (TYMXMTS)      RS8MIK.ME0    1982-07-15 00:20   [3,375362]
   (TYMXMTS)      ONAASE.ME0    1982-07-20 20:22   [3,375362]
   (TYMXMTS)      ILA4LZ.ME0    1982-07-31 00:55   [3,375362]
   (TYMXMTS)      TV9ATT.ME0    1982-09-22 01:13   [3,375362]
   (TYMXMTS)      N5Z5D0.ME0    1982-09-29 00:32   [3,375362]
   (TYMXMTS)      NYCIWX.MR0    1983-06-07 04:30   [3,375362]
   (TYMXMTS)      JVHHA9.MR0    1983-04-29 22:58   [3,375362]
   (TYMXMTS)      ZOM8KF.MR0    1983-03-29 18:04   [3,375362]
   (TYMXMTS)      PURGE .LOG    1982-11-16 18:04   [3,375362]
   (TYMXMTS)      OO7KLS.MP0    1982-04-15 00:03   [3,375362]
   (TYMXMTS)      JVHHA9.MB0    1983-04-30 22:58   [3,375362]
   (TYMXMTS)      ZOM8KF.MB0    1982-07-15 21:41   [3,375362]
   (TYMXMTS)      SID00U.MP0    1982-07-14 01:13   [3,375362]
   (TYMXMTS)      OO7KLS.ME0    1982-03-13 00:17   [3,375362]
   (TYMXMTS)      PC70OL.MP0    1982-02-30 20:13   [3,375362]
   (TYMXMTS)      MGRS  .CMD    1981-11-23 01:40   [3,375362]
   (TYMXMTS)      JYRLS9.MP0    1982-07-27 04:24   [3,375362]
   (TYMXMTS)      USRBZ0.MP0    1982-07-14 01:13   [3,375362]
   (TYMXMTS)      DVWMKD.MP0    1981-10-06 20:40   [3,375362]
   (TYMXMTS)      ZONMQF.ME0    1981-09-24 12:20   [3,375362]
   (TYMXMTS)      Y9OMHW.MP0    1981-09-22 19:12   [3,375362]
   (TYMXMTS)      ZONMQF.MP0    1981-09-09 15:22   [3,375362]
   (TYMXMTS)      THRDMG.MP0    1981-07-27 23:55   [3,375362]
   (TYMXMTS)      NYCIWX.MB0    1983-04-30 23:00   [3,375362]
   (TYMXMTS)      QVMEV0.MP0    1981-06-28 23:49   [3,375362]
   (TYMXMTS)      D5DHE6.MP0    1981-06-08 16:34   [3,375362]
   (TYMXMTS)      D5DHE6.ME0    1981-06-08 16:33   [3,375362]
   (TYMXMTS)      SCHED .DAT    1981-06-01 14:27   [3,375362]
   (TYMXMTS)      OO5WZB.MR0    1983-04-29 22:59   [3,375362]
   (TYMXMTS)      OO5WZB.MB0    1983-04-30 22:59   [3,375362]
   (TYMXMTS)      Y9OMHW.ME0    1981-03-12 20:12   [3,375362]
   (TYMXMTS)      TSVKZ9.ME0    1981-03-12 19:44   [3,375362]
   (TYMXMTS)      QVMEV0.ME0    1981-03-06 08:21   [3,375362]
   (TYMXMTS)      YVWMKD.ME0    1981-01-26 05:52   [3,375362]
   (TYMXMTS)      YVWMKD.MP0    1981-01-26 05:51   [3,375362]
   (TYMXMTS)      THRDMG.ME0    1982-06-23 20:26   [3,375362]
   (TYMXMTS)      SID00U.ME0    1982-07-08 01:12   [3,375362]
   (TYMXMTS)      USRBZ0.ME0    1982-07-08 01:14   [3,375362]
   (TYMXMTS)      JYRLS9.ME0    1982-07-08 01:28   [3,375362]
   (TYMXMTS)      TEXTS .TXT    1982-07-20 19:10   [3,375362]
End of saveset, written by TITO v16.  

Start of saveset, written by TITO v16.  Tape #1, 1983-10-14 21:14
System: F30-P034/K.  Tape: 1600 bpi, 9 tracks.
   (ADELE)        RPG   .INI    1982-04-15 23:29   [3,251535]
   (ADELE)        INIT  .SAV    1982-11-02 20:21   [3,251535]
   (ADELE)        TVSTRI.NGS    1981-05-05 16:40   [3,251535]
   (ADELE)        INDENT.SAV    1982-05-26 19:52   [3,251535]
   (ADELE)        SIZES .SAV    1980-10-16 23:17   [3,251535]
   (ADELE)        TAPELI.SAV    1979-11-10 17:47   [3,251535]
   (ADELE)        WHEN  .SAV    1983-04-07 17:22   [3,251535]
   (ADELE)        REMIND.DAT    1982-10-24 22:30   [3,251535]
   (ADELE)        DIRIT .INI    1982-11-02 23:45   [3,251535]
End of saveset, written by TITO v16.  

Start of saveset, written by TITO v16.  Tape #1, 1983-10-14 21:14
System: F30-P034/K.  Tape: 1600 bpi, 9 tracks.
   (ADELE)        RPG   .INI    1982-04-15 23:29   [3,251535]
   (ADELE)        INIT  .SAV    1982-11-02 20:21   [3,251535]
   (ADELE)        TVSTRI.NGS    1981-05-05 16:40   [3,251535]
   (ADELE)        INDENT.SAV    1982-05-26 19:52   [3,251535]
   (ADELE)        SIZES .SAV    1980-10-16 23:17   [3,251535]
   (ADELE)        TAPELI.SAV    1979-11-10 17:47   [3,251535]
   (ADELE)        WHEN  .SAV    1983-04-07 17:22   [3,251535]
   (ADELE)        REMIND.DAT    1982-10-24 22:30   [3,251535]
   (ADELE)        DIRIT .INI    1982-11-02 23:45   [3,251535]
End of saveset, written by TITO v16.  

Start of saveset, written by TITO v16.  Tape #1, 1983-10-14 21:26
System: F38-P034/K.  Tape: 1600 bpi, 9 tracks.
   (ADELE)        RPG   .INI    1982-04-15 23:30   [3,251535]
   (ADELE)        MAIN  .VUE    1981-06-03 21:20   [3,251535]
   (ADELE)        INIT  .SAV    1982-11-02 20:50   [3,251535]
   (ADELE)        020TEL.COM    1980-10-16 00:03   [3,251535]
   (ADELE)        020TEL.OUT    1980-10-16 00:03   [3,251535]
   (ADELE)        INIT  .SAI    1983-09-20 00:01   [3,251535]
   (ADELE)        INIT  .REL    1983-09-20 00:05   [3,251535]
   (ADELE)        INIT  .XXX    1983-09-20 00:05   [3,251535]
   (ADELE)        TVSTRI.NGS    1981-07-24 17:35   [3,251535]
   (ADELE)        SPNODE.OUT    1981-04-29 21:08   [3,251535]
   (ADELE)        RTYACT.BAK    1981-06-03 21:19   [3,251535]
   (ADELE)        RTYACT.COD    1981-06-03 21:20   [3,251535]
   (ADELE)        SPOOL .SAV    1981-07-24 21:55   [3,251535]
   (ADELE)        INDENT.SAV    1982-05-26 19:34   [3,251535]
   (ADELE)        SIZES .SAV    1980-10-16 22:51   [3,251535]
   (ADELE)        SIZES .REL    1980-10-16 22:51   [3,251535]
   (ADELE)        SIZES .SAI    1980-10-16 22:50   [3,251535]
   (ADELE)        NODES .LST    1981-07-24 17:31   [3,251535]
   (ADELE)        CYFER .SAV    1982-03-05 16:42   [3,251535]
   (ADELE)        SETTRM.SAI    1983-09-20 00:01   [3,251535]
   (ADELE)        EMPTY .FIL    1980-08-28 23:26   [3,251535]
   (ADELE)        MAIL  .BOX    1982-01-25 22:08   [3,251535]
   (ADELE)        TAPELI.SAV    1979-11-10 17:46   [3,251535]
   (ADELE)        034TEL.COM    1980-10-16 23:04   [3,251535]
   (ADELE)        034TEL.OUT    1980-10-16 23:04   [3,251535]
   (ADELE)        ZAPFIL.CMD    1981-03-14 17:05   [3,251535]
   (ADELE)        REMIND.DAT    1981-04-29 21:06   [3,251535]
   (ADELE)        WHEN  .SAV    1983-04-07 17:41   [3,251535]
   (ADELE)        DIRIT .INI    1982-11-02 23:46   [3,251535]
End of saveset, written by TITO v16.  

Start of saveset, written by TITO v16.  Tape #1, 1983-10-14 21:26
System: F38-P034/K.  Tape: 1600 bpi, 9 tracks.
   (ADELE)        RPG   .INI    1982-04-15 23:30   [3,251535]
   (ADELE)        MAIN  .VUE    1981-06-03 21:20   [3,251535]
   (ADELE)        INIT  .SAV    1982-11-02 20:50   [3,251535]
   (ADELE)        020TEL.COM    1980-10-16 00:03   [3,251535]
   (ADELE)        020TEL.OUT    1980-10-16 00:03   [3,251535]
   (ADELE)        INIT  .SAI    1983-09-20 00:01   [3,251535]
   (ADELE)        INIT  .REL    1983-09-20 00:05   [3,251535]
   (ADELE)        INIT  .XXX    1983-09-20 00:05   [3,251535]
   (ADELE)        TVSTRI.NGS    1981-07-24 17:35   [3,251535]
   (ADELE)        SPNODE.OUT    1981-04-29 21:08   [3,251535]
   (ADELE)        RTYACT.BAK    1981-06-03 21:19   [3,251535]
   (ADELE)        RTYACT.COD    1981-06-03 21:20   [3,251535]
   (ADELE)        SPOOL .SAV    1981-07-24 21:55   [3,251535]
   (ADELE)        INDENT.SAV    1982-05-26 19:34   [3,251535]
   (ADELE)        SIZES .SAV    1980-10-16 22:51   [3,251535]
   (ADELE)        SIZES .REL    1980-10-16 22:51   [3,251535]
   (ADELE)        SIZES .SAI    1980-10-16 22:50   [3,251535]
   (ADELE)        NODES .LST    1981-07-24 17:31   [3,251535]
   (ADELE)        CYFER .SAV    1982-03-05 16:42   [3,251535]
   (ADELE)        SETTRM.SAI    1983-09-20 00:01   [3,251535]
   (ADELE)        EMPTY .FIL    1980-08-28 23:26   [3,251535]
   (ADELE)        MAIL  .BOX    1982-01-25 22:08   [3,251535]
   (ADELE)        TAPELI.SAV    1979-11-10 17:46   [3,251535]
   (ADELE)        034TEL.COM    1980-10-16 23:04   [3,251535]
   (ADELE)        034TEL.OUT    1980-10-16 23:04   [3,251535]
   (ADELE)        ZAPFIL.CMD    1981-03-14 17:05   [3,251535]
   (ADELE)        REMIND.DAT    1981-04-29 21:06   [3,251535]
   (ADELE)        WHEN  .SAV    1983-04-07 17:41   [3,251535]
   (ADELE)        DIRIT .INI    1982-11-02 23:46   [3,251535]
End of saveset, written by TITO v16.  

